{
    "region_origen": "us-east-1",
    "repos" :
    [
        {
            "repo_source":              "microservice1",
            "repo_target":              "prod.microservice",
            "repo_source_imagetag":     "5.0.8-demo-ltsc2019",
            "repo_target_imagetag":     "5.0.8-ltsc2019"
        },
        {
            "repo_source":              "microservice2",
            "repo_target":              "prod.microservice",
            "repo_source_imagetag":     "5.0.8-demo-ltsc2019",
            "repo_target_imagetag":     "5.0.8-ltsc2019"
        },
        {
            "repo_source":              "microservice3",
            "repo_target":              "prod.microservice",
            "repo_source_imagetag":     "5.0.8-demo-ltsc2019",
            "repo_target_imagetag":     "5.0.8-ltsc2019"
        },
        {
            "repo_source":              "microservice4",
            "repo_target":              "prod.microservice",
            "repo_source_imagetag":     "5.0.8-demo-ltsc2019",
            "repo_target_imagetag":     "5.0.8-ltsc2019"
        },
        {
            "repo_source":              "microservice5",
            "repo_target":              "prod.microservice",
            "repo_source_imagetag":     "5.0.8-demo-ltsc2019",
            "repo_target_imagetag":     "5.0.8-ltsc2019"
        }
    ]
}